%YAML 1.1
%TAG !u! tag:unity3d.com,2011:
--- !u!78 &1
TagManager:
  serializedVersion: 2
  tags: []
  layers:
  - Default
  - TransparentFX
  - Ignore Raycast
  - 
  - Water
  - UI
  - 
  - 
  - ForeGroundUI
  - 
  - 
  - 
  - 
  - 
  - 
  - 
  - 
  - 
  - 
  - 
  - 
  - 
  - 
  - 
  - 
  - 
  - 
  - 
  - 
  - 
  - 
  - 
  m_SortingLayers:
  - name: Default
    uniqueID: 0
    locked: 0
  - name: Background
    uniqueID: 3492726331
    locked: 0
  - name: Game
    uniqueID: 835944679
    locked: 0
  - name: Pieces
    uniqueID: 3550196373
    locked: 0
  - name: Selection
    uniqueID: 1058646509
    locked: 0
  - name: Debug
    uniqueID: 574827245
    locked: 0
  - name: Foreground
    uniqueID: 2183197365
    locked: 0
